{
    "version": "20231019.r1444.2f94966",
    "description": "v2rayA(unstable version, inno installer). A web GUI client of Project V which supports VMess, VLESS, SS, SSR, Trojan, Tuic and Juicity protocols.",
    "homepage": "https://github.com/v2rayA/v2raya",
    "license": {
        "identifier": "AGPL-3.0-only",
        "url": "https://github.com/v2rayA/v2rayA/raw/master/LICENSE"
    },
    "architecture": {
        "64bit": {
            "url": "https://nightly.link/v2rayA/v2rayA/actions/runs/6576735067/installer_windows_inno_x64_unstable-20231019.r1444.2f94966.exe.zip",
            "hash": "2d331e0ca4dce3bc981c470cdd380c5015d5839415c1c114ba30f55b012eedd0",
            "pre_install": "Rename-Item \"$dir\\installer_windows_inno_x64_unstable-$version.exe\" 'setup.exe' -ErrorAction 'SilentlyContinue' -Force"
        },
        "arm64": {
            "url": "https://nightly.link/v2rayA/v2rayA/actions/runs/6576735067/installer_windows_inno_arm64_unstable-20231019.r1444.2f94966.exe.zip",
            "hash": "ac2749ec1645b3e8a7cc8f48f321acbc6476a98d0369c902bfd5a0e8c29ed114",
            "pre_install": "Rename-Item \"$dir\\installer_windows_inno_arm64_unstable-$version.exe\" 'setup.exe' -ErrorAction 'SilentlyContinue' -Force"
        }
    },
    "installer": {
        "script": [
            "$args = @('/VERYSILENT', '/NORESTART', \"/DIR=`\"$dir`\"\")",
            "Start-Process \"$dir\\setup.exe\" -ArgumentList $args -Wait -Verb RunAs",
            "@('reset-passwd-v2raya-np') | ForEach-Object {",
            "    $content = Get-Content \"$bucketsdir\\v2raya\\scripts\\v2raya\\$_.ps1\"",
            "    $content = $content.Replace('v2raya-np', ' v2raya-unstable-np')",
            "    $content | Set-Content -Path \"$dir\\reset-passwd-v2raya-unstable-np.ps1\" -Encoding Ascii",
            "}",
            "#Remove-Item \"$([Environment]::GetFolderPath('commonstartmenu'))\\Programs\\v2rayA\" -Force -Recurse -ErrorAction 'SilentlyContinue'",
            "Remove-Item \"$dir\\setup.exe\" -Force -ErrorAction 'SilentlyContinue'",
            "$v2raya_startmenu_folder = [System.IO.Path]::Combine([Environment]::GetFolderPath('CommonStartMenu'), 'Programs', 'v2rayA')",
            "if ($global) { $startmenu = 'CommonStartMenu' } else { $startmenu = 'StartMenu' }",
            "$scoop_startmenu_folder = [System.IO.Path]::Combine([Environment]::GetFolderPath($startmenu), 'Programs', 'Scoop Apps')",
            "Move-Item \"$v2raya_startmenu_folder\" \"$scoop_startmenu_folder\\\" -ErrorAction 'SilentlyContinue' -Force"
        ]
    },
    "uninstaller": {
        "script": [
            "Start-Process \"$dir\\unins000.exe\" -ArgumentList @('/VERYSILENT', '/NORESTART') -Wait -Verb RunAs",
            "if ($global) { $startmenu = 'CommonStartMenu' } else { $startmenu = 'StartMenu' }",
            "$scoop_startmenu_folder = [System.IO.Path]::Combine([Environment]::GetFolderPath($startmenu), 'Programs', 'Scoop Apps')",
            "Remove-Item \"$scoop_startmenu_folder\\v2rayA\" -Recurse -Force -ErrorAction 'SilentlyContinue'"
        ]
    },
    "bin": [
        "v2rayA-service.exe",
        "reset-passwd-v2raya-unstable-np.ps1"
    ],
    "persist": "config",
    "checkver": {
        "url": "https://scoop-apps.vercel.app/v2rayA/v2rayA",
        "regex": "(?sm)/v2rayA/v2rayA/actions/runs/(?<runid>\\d+).*?installer_windows_inno_x64_unstable-([\\w.]+)\\.exe"
    },
    "autoupdate": {
        "architecture": {
            "64bit": {
                "url": "https://nightly.link/v2rayA/v2rayA/actions/runs/$matchRunid/installer_windows_inno_x64_unstable-$version.exe.zip"
            },
            "arm64": {
                "url": "https://nightly.link/v2rayA/v2rayA/actions/runs/$matchRunid/installer_windows_inno_arm64_unstable-$version.exe.zip"
            }
        }
    }
}
